abandoned	abandon	ed
abdicated	abdicate	d
ability	abil	ity
abjected	abject	ed
abjures	abjure	s
able	able
abnegation	ab	negation
abnormal	ab	norm	al
abnormally	ab	normal	ly
abortion	abort	ion
absorbed	absorb	ed
abuse	abuse
abused	abuse	d
abuses	abuse	s
abusive	ab	us	ive
academic	academ	ic
accelerate	accelerate
accompanying	ac	company	ing
accountant	ac	count	ant
accounting	account	ing
accumulation	accumula	tion
accurate	ac	cur	ate
acetation	acet	ation
achieved	achiev	ed
achievement	achieve	ment
acidify	acid	ify
actions	act	ion	s
active	act 	ive
activities	activ	it	ies
activity	act	ive	ity
actor	act	or
additional	add	ition	al
address	address
adhesive	adhes	ive
adjustability	adjust	abil	ity
advancement	adadvance	ment
adverb	ad	verb
advertisement	advert	ise	ment
affected	affect	ed
affordable	afford	able
afterhours	after	hour	s
afterthought	after	thought
against	against
agon	agon
agonize	agon	ize
agony	agon	y
aid	aid
airplane	air	plane
albinism	albin	ism
aliens	alien	s
allegory	all	ego	ry
allele	allel	e
allelomorph	allel	o	morph
alligators	alligator	s
alma	alma
alpha	alpha
alphabet	alpha	bet
alternatively	alternat	ive	ly
alum	alum
always	always
ambidexterous	ambi	dexter	ous
ambitious	ambit	ious
amusing	amus	ing
annotate	an	not	ate
anonymous	anonym	ous
another	an	other
anticapitalistic	anti	capital	ist	ic
antidisestablishmentarianism	anti	dis	establish	ment	arian	ism
antihero	anti	hero
antihistamine	anti	hist	amine
antiproton	anti	prot	on
antiracism	anti	rac	ism
anybody	any	body
anyhow	any	how
anyway	any	way
apathetically	a	path	etic	ally
applaud	applaud
appreciate	appreciate
approximation	approxim	ation
archery	arch	ery
argue	argue
argument	argu	ment
arm	arm
armlock	arm	lock
arthroplasty	arthro	plast	y
asocial	a	social
assertion	asser	tion
assessment	assess	ment
assignment	assign	ment
astonishing	astonish	ing
astrograph	astro	graph
asynchronized	a	syn	chron	ize	d
audience	audi	ence
authorless	author	less
autism	aut	ism
autobiographically	auto	bio	graph	ic	ally
autobiography	auto	bio	graph	y
autorithy	author	ity
avoided	avoid	ed
awareness	aware	ness
awful	aw	ful
backboard	back	board
background	back	ground
backhand	back	hand
backward	back	ward
bakers	bak	er	s
balls	ball	s
band	band
bankrupcy	bank	rupcy
barefoot	bare	foot
barking	bark	ing
barracuda	barracuda
baseball	base	ball
basketball	basket	ball
beach	beach
bears	bear	s
beautiful	beauti	ful
bedroom	bed	room
beds	bed	s
beers	beer	s
befitting	be	fitt	ing
beforehand	before	hand
befriended	be	friend	ed
behead	be	head
bend	bend
bended	bend	ed
bender	bend	er
benefit	bene	fit
best	best
bestir	be	stir
biannually	bi	annu	al	ly
biblical	bibl	ical
bibliography	biblio	graphy
bicycle	bi	cycle
bidirection	bi	direct	ion
biodiversity	bio	divers	ity
biographical	bio	graph	ic	al
biped	bi	ped
bitterness	bitter	ness
blackboards	black	board	s
blandishment	bland	ish	ment
blandness	bland	ness
blend	blend
blended	blend	ed
blender	blend	er
blending	blend	ing
blind	blind
blindness	blind	ness
blinking	blink	ing
bloodline	blood	line
bloody	blood	y
blueprint	blue	print
boat	boat
bodybuilders	body	build	er	s
bodyguards	body	guard	s
bohemian	bohemia	n
bold	bold
book	book
bookbinder	book	bind	er
bookcase	book	case
books	book	s
boosted	boost	ed
bored	bor	ed
boredom	bore	dom
boring	bor	ing
boundary	bound	ary
bounty	bount	y
bowman	bow	man
boxer	box	er
boxes	box	es
boy	boy
boyfriends	boy	friend	s
boys	boy	s
boys	boy	s
breakable	break	able
breautiful	beauti	ful
bribery	bribe	ry
briefly	brief	ly
brightem	bright	em
brilliant	brill	i	ant
broader	borad	er
brotherhood	brother	hood
brutality	brutal	ity
buildable	build	able
building	build	ing
building	build	ing
buses	bus	es
busyness	busy	ness
butter	butter
buyers	buy	er	s
cacophony	caco	phony
cakes	cake	s
calendar	calendar
called	call	ed
calligraphy	calli	graph	y
calling	call	ing
calmly	calm	ly
campuses	camp	us	es
canceled	cancel	ed
cannot	can 	not
canoeing	canoe	ing
capitalist	capital	ist
car	car
cardiovascular	cardio	vascul	ar
carefully	care	ful	ly
carelessness	care	less	ness
cargo	cargo
carriage	carr	iage
carrying	carry	ing
cars	car	s
cat	cat
cat	cat
cataphract	cata	phract
catechized	catech	iz	ed
cats	cat	s
cats	cat	s
cats	cat	s
cause	cause
ceaseless	cease	less
cedilla	cedilla
celebration	celebrat	ion
centered	center	ed
ceremonial	ceremoni	al
certainly	certain	ly
chainsaw	chain	saw
chairman	chair	man
chairs	chair	s
chalk	chalk
challenging	challeng	ing
championship	champion	ship
championship	champion	ship
changeful	change	ful
charge	charge
charismatic	charismat	ic
charming	charm	ing
charta	charta
chartaceous	charta	ceous
cheap	cheap
cheaper	cheap	er
cheaply	cheap	ly
cheater	cheat	er
checked	check	ed
cheeseburger	cheese	burger
cheesecake	cheese	cake
chessman	chess	man
chewing	chew	ing
childhood	child	hood
childish	child	ish
choke	choke
chronical	chron	ic	al
chronicles	chronicle	s
circuiter	circ	uit	er
circumnavigate	circum	navigate
classmade	class	made
classroom	class	room
cleaner	clean	er
cleanlineness	clean	line	ness
cleverness	clever	ness
cleverness	clever	ness
clothing	cloth	ing
cloudy	cloud	y
clueless	clue	less
coding	cod	ing
coeditors	co	edit	or	s
cold	cold
colding	cold	ing
collectedness	collect	ed	ness
collection	collect	ion
colorable	color	able
colorful	color	ful
combatant	combat	ant
combative	combat	ive
commander	command	er
commands	command	s
commercial	commerci	al
commonly	common	ly
companionship	companion	ship
competitor	compet	itor
completeness	complete	ness
components	component	s
conception	concept	ion
confidential	confident	ial
confusion	confus	ion
congregated	con	gregate	d
connecting	connect	ing
connections	connect	ion	s
conservatively	conservat	ive	ly
consultant	consult	ant
contagious	contag	i	ous
contain	con	tain
contamination	contamin	ation
contemplate	con	template
contemplation	contemplat	ion
contingency	con	tingen	cy
conundrum	conundrum
cooperatively	co	operat	ive	ly
copyright	copy	right
core	core
corner	corner
corns	corn	s
counterclockwise	counter	clock	wise
courageously	courage	ous	ly
cowardly	coward	ly
coworker	co	worker
coworkers	co	work	er	s
cranberry	cran	berry
crawler	crawl	er
craziness	crazi	ness
craziness	crazi	ness
creating	create	ing
creator	creat	or
crinckly	crinckl	y
crucially	cruc	ial	ly
crying	cry	ing
cubic	cub	ic
cultivation	cultiv	ation
cultural	cultur	al
cumbersome	cumber	some
curiously	curious	ly
curling	curl	ing
current	current
curve	curve
cuteness	cute	ness
cutting	cutt	ing
cyclotron	cyclo	tron
dancing	danc	ing
dangerous	danger	ous
darken	dark	en
darkness	dark	ness
darkness	dark	ness
deactivate	de	activ	ate
deadlifting	dead	lift	ing
deathly	death	ly
declassify	de	class	ify
decompose	de	compose
decongestant	de	congest	ant
dedication	dedicat	ion
deeply	deep	ly
defection	defect	ion
deform	de	form
deforms	de	form	s
degenerates	de	generate	s
dehumanize	de	human	ize
dehydration	de	hydr	at	ion
deletes	delete	s
deliverance	deliver	ance
demagnetize	de	magnet	ize
demoralization	de	moraliz	ation
denomination	de	nominarion
dentist	dent	ist
deployment	deploy	ment
depose	de	pose
depression	de	press	ion
derogated	derogate	ed
descendable	descend	able
described	describe	ed
desiccated	dessiccat	ed
designable	design	able
designing	design	ing
desirability	desir	abil	ity
desires	desire	s
despicable	despic	able
despotic	despot	ic
destroyer	destroy	er
destruction	destruct	ion
destructiveness	destruct	ive	ness
devastation	devastat	ion
developed	develop	ed
developer	develop	er
developing	develop	ing
development	develop	ment
developments	develop	ment	s
dictatorial	dictator	ial
difficulties	difficult	i	es
dildos	dildo	s
dilemma	dilemma
diligent	dili	gent
diminishing	di	minish	ing
dimonsionless	dimon	sion	less
directed	direct	ed
director	direct	or
disadvantageous	dis	advantage	ous
disagreed	dis	agree	d
disagreement	dis	agree	ment
disagreement	dis	agree	ment
disappeared	dis	appear	ed
disappointment	dis	appoint	ment
disapproval	dis	approv	al
disattention	dis	attention
disbelieves	dis	believe	s
discernment	discern	ment
discharged	dis	charg	ed
disclose	dis	close
discounts	dis	count	s
discouraged	dis	courage	d
discoverable	dis	cover	able
discoverer's	discover	er	's
disengagement	dis	engage	ment
Disgraceful	Dis	grace	ful
dishes	dish	es
dishonored	dis	honor	ed
disinclination	dis	inclin	ation
disinfectant	dis	infect	ant
disinfected	dis	infect	ed
disirable	desire	able
dislike	dis	like
dislikeable	dis	like	able
dislocation	dis	loca	tion
dismissing	dis	miss	ing
disobey	dis	obey
disproportionate	dis	proportion	ate
disrespectful	dis	respect	ful
distribution	distribut	ion
divergent	diverg	ent
doable	do	able
dog	dog
dogs	dog	s
dogs	dog	s
dogs	dog	s
dolphine's	dolphine	's
doors	door	s
doubleheader	double	head	er
doubts	doubt	s
dough	dough
doughnuts	dough	nut	s
downward	down	ward
dozed	doze	d
drained	drain	ed
drawback	draw	back
dreaming	dream	ing
dreamless	dream	less
dress	dress
driver	driv	er
drivers	driv	er	s
drug	drug
drumheads	drum	head	s
duckling	duck	ling
dysfunction	dys	function
eagerly	eager	ly
earthquakes	earth	quake	s
easterner	east	ern	er
eatable	eat	able
eated	eat	ed
ebb	ebb
ecosystem	eco	system
edible	ed	ible
educated	educat	ed
effectiveness	effect	ive	ness
eigendecomposition	eigen	de	compos	ition
eigenvectors	eigen	vector	s
election	elect	ion
electors	elector	s
electricity	electric	ity
electrocardiographic	electr	o	cardi	o	graph	ic
electroencephalograph	electro	encephalo	graph
electron	electr	on
electronically	electron	ic	ally
elements	element	s
elevator	elevat	or
embankment	em	bank	ment
embark	em	bark
embezzlement	embezzle	ment
emphasis	emphasis
employed	employ	ed
employee	employ	ee
employment	employ	ment
empowerment	em	power	ment
emprerors	emperor	s
emptier	empt	ier
enclosure	en	clos	ure
encoded	en	code	d
encompasses	en	compass	es
encounter	en	counter
encountered	en	counter	ed
encouragement	en	courage	ment
endangered	en	danger	ed
endlessly	end	less	ly
enforcement	en	force	ment
engine	engine
engineer	engin	eer
enjoyment	enjoy	ment
enlarge	en	large
enlightening	en	light	en	ing
enslaves	en	slave	s
entanglement	entangle	ment
environmentally	environ	ment	al	ly
epsilon	epsilon
equality	equal	ity
equipment	equip	ment
escalators	escalat	or	s
etymology	etymo	logy
evaluating	e	valu	at	ing
everyone	every	one
everywhere	every	where
exactly	exact	ly
exceedingly	exceed	ing 	ly
excellent	excell	ent
exceptional	ex	cept	ion	al
exchanging	ex	chang	ing
exclusive	exclus	ive
excretion	excret	ion
executives	execut	ive	s
exoplanet	exo	planet
expressway	express	way
extermination	ex	termin	ation
extortion	extort	ion
extrasterile	extra	sterile
extropical	extropical
eyebrows	eye	brow	s
eyebrows	eye	brow	s
eyedrop	eye	drop
face	face
factored	factor	ed
failure	fail	ure
faithful	faith	ful
faithfully	faith	ful	ly
faithfully	faith	ful	ly
fallen	fall	en
falling	fall	ing
familiarized	familiar	iz	ed
famously	famous	ly
far	far
fashionable	fashion	able
fearlessly	fear	less	ly
fearlessness	fear	less	ness
federations	feder	ation	s
fields	field	s
file	file
fillable	fill	able
finalized	final	ized
finder	find	er
firefighters	fire	fight	er	s
fires	fire	s
fisherman	fish	er	man
fishermen	fish	er	men
fishes	fish	es
fistful	fist	ful
flashback	flash	back
flashed	flash	ed
flemished	flemish	ed
fleshed	flesh	ed
flewed	flew	ed
floatingly	float	ing	ly
flowchart	flow	chart
fluids	fluid	s
focused	focus	ed
focusing	focus	ing
folder	fold	er
follow	follow
followed	follow	ed
follower	follow	er
foolishness	fool	ish	ness
foolproof	fool	proof
footballers	foot	ball	er	s
footnote	foot	note
footprints	foot	print	s
footwear	foot	wear
forcefully	zi	ful	ly
forearm	fore	arm
forecasting	fore	cast	ing
foreign	foreign
foreman	fore	man
foreshadow	fore	shadow
foretasting	fore	tast	ing
forever	for	ever
forever	for	ever
forgery	forg	ery
forgetful	forget	ful
forgetfulness	forget	ful	ness
forgive	forgive
formation 	form	ation
formed	form	ed
formerly	former	ly
fortitude	forti	tude
fragility	fragil	ity
frantic	frantic
fraudulent	fraud	ulent
freckle	freckle
freedom	free	dom
frequently	frequen	t	ly
frequently	frequent	ly
freshers	fresh	er	s
friendliness	friend	li	ness
friendly	friend	ly
friendship	friend	ship
friendship	friend	ship
friendships	friend	ship	s
frontlet	front	let
froutful	frout	ful
fullback	full	back
functional	function	al
fundamental	fundament	al
funniness	funni	ness
furniture	forni	ture
futurism	futur	ism
gap	gap
gap	gap
gaslights	gas	light	s
gastroscopy	gastr	o	scop	y
gazing	gaz	ing
generalized	general	ized
gentleman	gentle	man
gentlemen	gentle	men
gently	gent	ly
geography	geo	graph	y
geography	geo	graph	y
ghost	ghost
girlfriend	girl	friend
girls	girl	s
girls	girl	s
give	give
glasses	glass	es
global	glob	al
globalization	glob	al	iz	ation
globally	global	ly
gloominess	gloomi	ness
gluon	glu	on
goalkeeper	goal	keep	er
godspeed	god	speed
goes	go	es
going	go	ing
golden	gold	en
goodbye	good	bye
goodness	good	ness
goods	good	s
googling	googl	ing
government	govern	ment
governmental	govern	ment	al
graceful	grace	ful
gracefully	grace	ful	ly
graciousness	gracious	ness
grainways	grain	way	s
granary	gran	ary
grandchildren	grand	children
granddaughters	grand	daughter	s
grandfather	grand	father
grandfather	grand	father
grandmothers	grand	mother	s
grasping	grasp	ing
grateful	grate	ful
gravitation	gravit	ation
gravitational	gravit	ation	al
greatest	great	est
greatness	great	ness
groundwork	ground	work
grumpy	grump	y
gruntled	grunt	led
guilty	guilt	y
guitar
guitarist	guitar	ist
guy	guy
hadron	hadr	on
hag	hag
handle	hand	le
hands	hand	s
handwriting	hand	writ	ing
hangman	hang	man
hapless	hap	less
happier	happi	er
happiest	happi	est
happiness	happi	ness
happyness	happy	ness
hardest	hard	est
hardness	hard	ness
hardworking	hard	work	ing
harmless	harm	less
harmonic	harmon	ic
hate	hate
headache	head	ache
headphones	head	phone	s
healthiness	healthi	ness
healthy	health	y
heavens	heaven	s
heaviest	heav	i	est
hellish	hell	ish
hello 	hello
helplessness	help	less	ness
hemispherical	hemi	spher	ical
herself	her	self
hesitation	hesitat	ion
higher	high	er
highest	high	est
highway	high	way
himself	him	self
historical	histor	ical
hog	hog
holiday	holi	day
holyday	holy	day
homeless	home	less
homemade	home	made
homepage	home	page
homesickness	home	sick	ness
homework	home	work
honestly	honest	ly
honey	honey
honorable	honor	able
hopeful	hope	ful
hopefully	hope	ful	ly
hopeless	hope	less
horizontal	horizon	tal
horse	horse
horses	horse	s
Hotdogs	hot	dog	s
hourly	hour	ly
householders	house	hold	er	s
houses	house	s
housewife	house	wife
hum	hum
humanoid	human	oid
hungriness	hangri	ness
husbands	husband	s
hydrodynamics	hydro	dynam	ics
hyperpyramid	hyper	pyram
hypertension	hyper	tens	ion
icecream	ice	cream
ill	ill
illness	ill	ness
illogical	il	logic	al
illumination	illuminat	ion
imaginated	imaginat	ed
imagination	imag	ination
imagined	imagin	ed
immures	immure	s
impartiality	im	partial	ity
impatience	im	patience
impatiently	im	patient	ly
implanted	im	plant	ed
implanter	im	plant	er
importing	import	ing
impossibilities	im	possib	ilit	ies
impossible	im	possible
imposture	impos	ture
impraticable	im	pratic	able
imprecise	im	precise
impressed	im	press	ed
improvising	im	provis	ing
inactive	in	act	ive
inadequacy	in	adequa	cy
inaudible	in	aud	ible
incidental	incident	al
include	include
incompetent	in	compet	ent
incompletion	in	complete	ion
inconspicuous	in	conspicu	ous
increasingly	increas	ing	ly
incredible	in	cred	ible
independence	in	dependen	ce
independently	in	depend	ent	ly
indigestion	in	digest	ion
indistinguishable	in	dis	tinguish	able
inexorably	inexorab	ly
infallible	in	fallible
infections	in	fect	ion
inflectional	inflect	ion	al 
infrequently	in	frequent	ly
initiate	initi	ate
inject	in	ject
injection	in	ject	ion
injuriously	injurious	ly
injustice	in	justice
ink	ink
inputs	in	put	s
inside	in	side
insignificant	in	signific	ant
instructor's	instruct	or	's
intakes	in	take	s
integrable	integr	able
interaction	inter	act	tion
interchangeabilities	inter	change	abilit	ies
interested	interest	ed
internationality	inter	nation	al	ity
internationalization	inter	nation	al 	iza	tion
intolerable	in	tolera	ble
intraverbal	intra	verb	al
introversion	intro	version
introvolution	intro	volution
invaluable	in	valu	able
invested	invest	ed
investments	invest	ment	s
irrational	ir	ratio	nal
irrefutable	ir	refut	able
irregularity	ir	regul	ar	ity
irresistible	ir	resist	ible
irresistible	ir	resist	ible
island	island
isomorphic	iso	morph	ic
jailbreak	jail	break
jaws	jaw	s
jeopardize	jeopard	ize
journals	journal	s
juice	juice
jumping	jump	ing
jungle	jungle
justify	just	ify
keeper	keep	er
keepers keep er s	keep	er	s
keyboard	key	board
keyboards	key	board	s
keys	key	s
kid	kid
kidding	kidd	ing
kidding	kidd	ing
kids	kid	s
killed	kill	ed
killed	kill	ed
kinder	kind	er
kindness	kind	ness
kindness	kind	ness
king	king
kingdoms	king	dom	s
kings	king	s
kissed	kiss	ed
kisses	kiss	es
kneepads	knee	pad	s
knife	knife
knowing	know	ing
knowledge	know	ledge
laborers	labor	er	s
lactovegetarian	lacto	vegetarian
ladylike	lady	like
lake	lake
landowner	land	own	er
language	lan	guage
languages	language	s
last	last
lasting	last	ing
later	lat	er
lawgiver	law	giv	er
lawmakers	law	mak	er	s
laziness	lazi	ness
laziness	lazi	ness
leader	lead	er
leaders	lead	er	s
leadership	lead	er	ship
leaped	leap	ed
learning	learn	ing
leaving	leav	ing
legal	legal
legality	legal	ity
legalize	legal	ize
lemma	lemma
lemures	lemure	s
lesbians	lesbian	s
lettered	letter	ed
leveller	level	ler
lexicographer	lexico	graph	er
libeling	libel	ing
lifeguard	life	guard
likeable	like	able
linguistic	linguist	ic
linteled	lintel	ed
lions	lion	s
liquors	liquor	s
lists	list	s
locked	lock	ed
loneliness	lonel	iness
loneliness	lone	line	ness
long	long
looked	look	ed
loophole	loop	hole
lordship	lord	ship
louder	loud	er
lovely	love	ly
loving	lov	ing
lowest	low	est
loyalty	loyal	ty
lust	lust
lymphatic	lymph	atic
machinist	machin	ist
macroclimate	macro	climate
madness	mad	ness
magical	magic	al
majestic	majest	ic
majority	major	ity
malfunction	mal	function
man	man
management	manage	ment
manager	manag	er
manageress	manag	er	ess
manifestation	mani	fest	ation
mankind	man	kind
manpower	man	power
manufacturer's	manu	factur	er	's
marginalize	margin	al	ize
marker	mark	er
marrows	marrow	s
masseuse	mass	euse
massiveness	massive	ness
masterchef	master	chef
me	me
mean	mean
meaning	mean	ing
meaningful	meaning	ful
meaningless	mean	ing	less
meanwhile	mean	while
measurement	measure	ment
mechanically	mechan	ic	al	ly
medically	medic	al	ly
medication	medic	at	ion
megacolon	mega	colon
mellow	mellow
memorise	memor	ise
menopause	meno	pause
mental	ment	al
mentally	mental	ly
metaphorically	metaphor	ical	ly
microbiology	micro	bio	log	y
microphone	micro	phone
midfielders	mid	field	er	s
midnight	mid	night
milder	mild	er
milk	milk
mindless	mind	less
minimalism	minimal	ism
minority	minor	ity
misadapt	mis	adapt
miscalculates	mis	calculate	s
misclassify	mis	class	ify
misconception	mis	concept	ion
misconduct	mis	con	duct
misidentified	mis 	ident	ifi	ed
misinterpret	mis	interpret
misinterpret	mis	interpret
misinterpretation	mis	interpret	ation
misleading	mis	lead	ing
misled	mis	led
missing	miss	ing
missionary	mission	ary
misspelling	mis	spell	ing
mistreat	mis	treat
mistreatment	mis	treat	ment
misunderstanding	mis	undestand	ing
misunderstanding	mis	understand	ing
mixture	mix	t	ure
modernize	modern	ize
monogamy	mono	gamy
moralist	moral	ist
morphallaxis	morph	allax	is
morphology	morph	olo	gy
mortal	mort	al
motherhood	mother	hood
motivate	motiv	ate
moulded	mould	ed
mountable	mount	able
mountaineer	mountain	eer
mouses	mouse	s
mouthguard	mouth	guard
mouthwashes	mouth	wash	es
movement	move	ment
movement	move	ment
multicolored	multi	color	ed
multisensory	multi	sensor	y
multiset	multi	set
multithreading	multi	thread	ing
multitude	multi	tude
muon	mu	on
murderers	murder	er	s
muscles	muscle	s
musician	music	ian
mutant	mut	ant
nakedness	naked	ness
name	name
name	name
named	nam	ed
namely	name	ly
names	name	s
nanometer	nano	meter
national	nation	al
nationhood	nation	hood
natural	natur	al
nearly	near	ly
neighborhood	neighbor	hood
neoplasty	neo	plast	y
nerve	nerve
network	net	work
neural	neur	al
neutrino	neutr	ino
neutron	neutr	on
neverending	never	end	ing
nevertheless	never	the	less
newspaper	news	paper
nobleman	noble	man
noise	noise
noiseless	noise	less
nominations	nominat	ion	s
nonperishable	non	perish	able
nonvirtuousness	non	virtuous	ness
nordic	nord	ic
normated	normat ed
nose	nose
notable	not	able
note	note
notebook	note	book
notebooks	note	book	s
nuclear	nucle	ar
nullify	null	ify
numerous	numer	ous
nuthouse	nut	house
nutritious	nutrit	ious
obscurity	obscur	ity
occasional	occasion	al
occasionally	occasion	ally
occupation	occup	ation
oceanic	ocean	ic
offer	off	er
offerer	off	er	er
ongoing	on	go	ing
online	on	line
operation	operat	ion
opration	operat	tion
optimum	optim	um
orally	oral	ly
orange	orange
orbital	orbit	al
orthographic	ortho	graph	ic
orthopedis	orto	ped	ist
outclass	out 	class26th o
outside	out	side
outsider	out	side	er
outstanding	out	stand	ing
outstretch	out	stretch
oven	oven
overcooked	over 	cook	ed
overcrowded	over	crowd	ed
overcrowding	over	crowd	ing
overdevelop	over	develop
overdeveloped	over	develop	ed
overfitting	over	fitt	ing
overfitting 	over	fitt	ing
overlight	over	light
overlords	over	lord	s
overpay	over	pay
overpopulating	over	populat	ing
overpowering	over	power	ing
overtake	over	take
overvalued	over	valu	ed
overwhelming	over	whelm	ing
overwinter	over	winter
owlet	ow	let
painful	pain	ful
painkillers	pain	kill	er	s
painless	pain	less
painter	paint	er
painting	paint	ing
pale	pale
palette	palette
panamorphic	pana	morph	ic
panical	panic	al
papermaking	paper	mak	ing
paperwork	paper	work
papyrus	papyrus
paranoia	para	noia
parliament	parlia	ment
parsing	pars	ing
partner
partnership	partner	ship
parts	part	s
password	pass	word
pathfinder	path	find	er
pathological	path	olog	ic	al
payment	pay	ment
payments	pay	ment	s
peaceful	peace	ful
peacefull	peace	full
peg	peg
pegs	peg	s
pens	pen	s 
pentagram	penta	gram
perfect	perfect
performance	perform	ance
performer	perform	er
pets	pet	s
philosophy	philo	soph	y
phones	phone	s
physical	physic	al
physiologists'	physi	olog	ist	s	'
pieces	piece	s
piezoelectric	piezo	electr	ic
pig	pig
pigeonhole	pigeon	hole
pikeman	pike	man
pions	pi	on	s
pipeline	pipe	line
pitching	pitch	ing
plausible	plaus	ible
play	play
played	play	ed
playful	play	ful
plays	play	s
playthings	play	thing	s
pleasure	pleas	ure
plumb	plumb
plumbers	plumb	er	s
plywood	ply	wood
pneumonoultramicroscopicsilicovolcanoconiosis	pneumono	ultra	micro	scopic	silico	volcano	coniosis
pocketable	pocket	able
poems	poem	s
poetic	poet	ic
pointless	point	less
poised	pois	ed
policewoman	police	woman
political	politic	al
politics	politic	s
polygamy	poly	gamy
pony	pony
poor	poor
popularity	popular	ity
portlight	port	light
positron	posi	tron
possession	possess	ion
posted	post	ed
postscript	post	script
potato	potato
potatoes	potato	es
power	power
preagreements	pre	agree	ment
precision	precis	ion
preexisting	pre	exist	ing
prefer	pre	fer
prefix	pre	fix
prehistoric	pre	histor	ic
prejudges	pre	judge	s
premodernism	pre	modern	ism
preoccipital	pre	occipit	al
prepare	pre	pare
prepay	pre	pay
preprocessing	pre	process	ing
prescribe	pre	scrib	e
prescription	pre	script	ion
presentiments	pre	sentiment	s
press	press
previewing	pre	view	ing
price	price
priceless	price	less
priests	priest	s
printable	print	able
probably	probab	ly
problematic	problem	atic
processing	process	ing
procrustean	pro	crust	ean
productivity	product	iv	ity
professional	profession	al
promotional	promot	ion	al
promtness	promt	ness
pronounce	pro	nounce
propagators	propagat	or	s
protection	protect	ion
proton	prot	on
protoplasmic	proto	plasm	ic
provident	provid	ent
pruners	prun	er	s
psychology	psycho	logy
psychology	psycho	logy
puffy	puff	y
pull	pull
purely	pure	ly
purposeful	purpose	ful
pyramid	pyram	id
pyre	pyre
pyrotechnic	pyro	techn	ic
pyrotechnical	pyro	technic	al
qualification	qualif	ic	ation
qualified	qualifi	ed
qualifier	qualifi	er
qualify	qualif	y
quark	quark
quarterback	quart	er	back
queen	queen
queens	queen	s
queenside	queen	side
quickens	quick	en	s
quickly	quick	ly
quickness	quick	ness
Quinean	Quine	an
quits	quit	s
quote	quot	e
rabbit	rabbit
rabbits	rabbit	s
radical	radic	al
radioactive	radio	active
radioimmunoelectrophoresis	radio	immuno	electro	phoresis
radiowaves	radio	wave	s
railroad	rail
rainy	rain	y
randomized	random	iz	ed
rashness	rash	ness
raspberry	rasp	berry
ratings	rating	s
rationalist	rational	ist
reachability	reach	abil	ity
reachable	reach	able
reactivate	re	activ	ate
readable	read	able
reader	read	er
readings	read	ing	s
readjusted	re	adjust	ed
realign	re	align
realistic	real	istic
realistically	real	istic	ally
reappearing	re	appear	ing
reasonable	reason	able
reasonable	reason	able
reassigning	re	assign	ing
reballoted	re	ballot	ed
rebuilded	re	build	ed
recall	re	call
recall	re	call
recallment	re	call 	ment
recompile	re	compil	e
reconsider	re	consider
recounts	re	count	s
recreation	re	creat	ion
recruited	recruit	ed
recurrent	re	current
redeployment	re	deploy	ment
redness	red	ness
reestablishment	re	establish	ment
refactoring	re	factor	ing
reference	refer	ence
reference	refer	ence
references	refer	ence	s
refilled	re	fill	ed
reform	re	form
refunds	re	fund	s
regarded	regard	ed
regiment	regi	ment
regressor	re	gress	or
regrouping	re	group	ing
reignited	re	ignit	ed
reincarnation	re	in	carn	ation
reinfusion	re	infus	ion
relaxed	relax	ed
relentlessness	relent	less	ness
reliable	rel	i	able
remarkable	re	mark	able
removed	re	mov	ed
reobserved	re	observ	ed
repackage	re	pack	age
replay	re	play	s
replay	re	play
representative	re	present	ative
reproduce	re	produce
request	request
requital	re	quit	al
rerun	re	run
researchers	re	search	er	s
resettled	re	settle	d
residuary	residu	ary
resisting	resist	ing	 
retaker	re	tak	er
retirement	retire	ment
retroactive	re	tro	active
retrogression	retro	gression
retrospection	retro	spec	tion
return	re	turn
reunion	re	union
reunited	re	unit	ed
reuse	re	use
Revisionist	Re	vision	list
revolvers'	revolv	er	s	'
rewater	re	water
rewind	re	wind
rinse	rinse
rivalry	rival	ry
roadway	road	way
robbery	robb	ery
roomemade	room	made
roommate	room	mate
rosettes	rose	ette	s
rotator	rotat	or
roundness	round	ness
roundness	round	ness
rules	rule	s
run	run
running	runn	ing
rush	rush
sadly	sad	ly
sadness	sad	ness
sadness	sad	ness
salesmen	sale	s	men
sated	sat	ed
saturation	satur	at	ion
scalding	scald	ing
scandalize	scandal	ize
scientific	scient	ific
scoreboard	score	board
seadog	sea	dog
seahorse	sea 	horse
searching	search	ing
seaside	sea 	side
seaward	sea	ward
secretions	secre	tion	s
seeing	see	ing
sees	see	s
selfish	self	ish
seller	sell	er
semiconductor	semi	conduct	or
semideaf	semi	deaf
senator	senat	or
separation	separ	ation
series	serie	s
serving	serv	ing
setup	set	up
seventeen	seven	teen
several	several
sexist	sex	ist
sexy	sex	y
shafts	shaft	s
shameless	shame	less
shaped	shap	ed
sharpshooters	sharp	shoot	er	s
shearer	shear	er
sheep	sheep
shiny	shin	y
shipment	ship	ment
shooting	shoot	ing 
shopping	shopp	ing
short	short
showman	show	man
sick	sick
sickness	sick	ness
sidewalk	side	walk
silk	silk
simply	simple	y
singable	sing	able
slanting	slant	ing
slaughterhouse	slaughter	house
slavery	slav	ery
sleeper	sleep	er
sleeping	sleep	ing
sleet	sleet
slothfulness's	sloth	ful	ness	s
slowly	slow	ly
slowness	slow	ness
smaller	small	er
smallest	small	est
smarten	smart	en
smartphone	smart	phone
smorgasbord	smor	gas	bord
smuggler	smuggl	er
snakes	snake	s
snorkeling	snorke	ling
snowboarder	snow	board	er
soaking	soak	ing
softness	soft	ness
solitude	soli	tude
somebody	some	body
song	song
sons	son	s
spaghetti	spagh	etti
spanned	spann	ed
spark	spark
sparse	sparse
sparsity	spars	ity
speaking	speak	ing
specialist	special	ist
specification	specif	ic	ation
spectres	spectre	s
speechless	speech	less
speechless	speech	less
speechless	speech	less
spellers	spell	er	s
spelling	spell	ing
spencers	spencer	s
spending	spend	ing
spewed	spew	ed
spinelessness	spine	less	ness
spiritually	spirit	ual	ly
spited	spit	ed
sprayable	spray	able
stamp	stamp
stapler	stapl	er
stargazing	star	gaz	ing
stars	star	s
starvation	starv	ation
statement	state	ment
stationary	station	ary
staying	stay	ing
stealing	steal	ing
stepmother	step	mother
stepmotherliness	step	mother	liness
stereophonic	stereo	phon	ic
stiffness	stiff	ness
stopping	stopp	ing
striker	strik	er
studenthood	stud	ent	hood
stuffing	stuff	ing
stupidity	stupid	ity
stylist	styl	ist
submit	sub	mit
suboval	sub	oval
subterfuge	subter	fuge
succeed	succe	ed
succeeding	succeed	ing
suddenly	sudden	ly
suit	suit
summed	sum	med
summer	summer
Sunday	Sun	day
sunglasses	sun	glass	es
sunlight	sun	light
sunny	sunn	y
sunrise	sun	rise
sunset	sun	set
surfer	surf	er
surname	sur	name
swallowpipe	swallow	pipe
sweeten	sweet	en
swimming	swim	ming
swordfish	sword	fish
swordman	sword	man
synthetic	syn	thetic
table	table
table	table	s
tactician	tactic	ian
takeoff	take	off
talkactive	talk	active
talketive	talk	tive
talking	talk	ing
taller	tall	er
taste	taste
tasted	tast	ed
tastes	taste	s
tasting	tast	ing
taxable	tax	able
teacher	teach	er
teammate	team	mate
technically	tech	nic	ally
telemeter	tele	meter
telescope	tele	scope
telescope	tele	scope
television	tele	vision
tenderness	tend	er	ness
terrane	terrane
tested	test	ed
testify	test	ify
testing test ing	test	ing
textbook	text	book
theatre	theatre
themselves	them	sel	ves
thermodynamics	thermo	dynamics
thermometer	therm	o	meter
these	these
thoughtful	thought	ful
threaten	threat	en
thumbtack	thumb	tack
tidying	tidy	ing
tighten	tight	en
tightness	tight	ness
tingling	tingl	ing
title	title
tokenization	token	ization
tomatoes	tomato	es
toothpaste	tooth	paste
topographical	topo	graph	ic	al
topology	topo	logy
torque	torque
tracked	track	ed
tractable	tract	able
traded	trad	ed
trailer	trail	er
trained	train	ed
trainer	train	er
transcontinental	trans	continent	al
travelling	travell	ing
treating	treat	ing
treatments	treat	ment	s
trial	tri	al
triangles	tri	angle	s
trick	trick
triggered	trigger	ed
troubled	troubl	ed
truncate 	truncate
trusted	trust	ed
truth	tru	th
truthfully	tru	th	ful	ly
trying	try	ing
twirls	twirl	s
twisted	twist	ed
typed	typ	ed
typewriter	type	writ	er
ugly	ugly
unable	un	able
unable	un	able
unacceptable	un	accept	able
unannounced	un	announc	ed
unattainable	un	attain	able
unbearable	un	bear	able
unbeatable	un	beat	able
unbelievable	un	believe	able
unbiographical	un	bio	graphic	al
unblieveable	un	bllieve	able
unboarded	un	board	ed
unborn	un	born
unbounded	un	bound	ed
unbreakable	un	break	able
uncertainty	un	certain	ty
uncharacteristic	under	character	istic
uncirculating	un	circulat	ing
uncivilized	un	civil	iz	ed
uncomfortable	un	comfort	able
uncommitted	un	committ	ed
uncommon	un	common
unconstitutional	un	constitution	al
unconventional	un	convention	al
uncover	un	cover
unctuousness'	unctu	ous	ness	'
undecidable	un	decid	able
undecipherable	un	de	cipher	able
undeniable	un	deni	able
under	under
underachieving	under	achiev	ing
undercommercialization	under	commercial	ization
underconsumption	under	consum	ption
underestimated	under	estimat	ed
underground	under	ground
underlight	under	light
underrepresented	under	represent	ed
underscore	under	score
understatement	under	state	ment
understructure	under	structure
undertaking	under	tak	ing
undertakings	under	tak	ing	s
undervalued	under	value	d
underwear	under	wear
underwriter	under	write	r
undesiderable	un	desider	able
undo	un 	do
undone	un	done
undulation	und	ulation
unemployed	un	employ	ed
unequal	un	equal
unequaled	un	equal	ed
unfair	un	fair
unfarily	un	fair	ly
unfashionable	un	fashion	able
unfearful	un	fear	ful
unforgiving	un	forgiv	ing
unforgiving	un	forgiv	ing
unhealthy	un	health	y
unicorn	uni	corn
unicyclist	uni	cycl	ist
uniform	uni	form
unimaginable	un	imagin	able
unimpressed	un	impress	ed
uniserial	uni	serial
unkindness	un	kind	ness
unknow	un	know
unlawful	un	law	ful
unlikely	un	like	ly
unlimited	un	limit	ed
unmotivated	un	motivat	ed
unmount	un	mount
unpasting	un	past	ing
unpercussed	un	percuss	ed
unpopular	un	popular
unposted	un	post	ed
unprecedented	un	precedent	ed
unpredictabilities	un	predict	abilit	ies
unprepared	un	prepar	ed
unpresentable	un	present	able
unqualified	un	qualifi	ed
unquestionable	un	question	able
unreachable	un	reach	able
unreachables	un	reach	able	s
unreasonable	un	reason	able
unrelated	un	relat	ed
unreliable	un	rel	i	able
unrepeatable	un	repeat	able
unrepeated	un	repeat	ed
unsafe	un	safe
unsteadily	un	steadi	ly
unstrapped	un	strapp	ed
untouchable	un	touch	able
untruthfulness	un	truth	ful	ness
unwillingness	un	will	ing	ness
unworthy	un	worth	y
upbeat	up	beat
upstream	up	stream
uptight	up	tight
usefulness	use	ful	ness
useless	use	less
utterances	utter	ance	s
uttermost	utter	most
villain	villain
violent	violent
violin	violin
violinist	violin	ist
vitamine	vit	amine
vocations	voc	ation	s
vodka 	vodka 
vouchsafed	voch	safe	d
waiter	wait	er
waiting	wait	ing
walked	walk	ed
walker	walk	er
walkover	walk	over
wall	wall
wandering	wander	ing
wandering	wander	ing
war	war
wash	wash
wastage	wast	age
watchdog	watch	dog
watched	watch	ed
waterfall	water	fall
waterhouse	water	house
watermark	water	mark
waterproof	water	proof
wearing	wear	ing
weather	weather
weatherman	weather	man
wednesdays	wednesday	s
weightlifting	weight	lift	ing
welcome	wel	come
welcome	wel	come
welcoming	welcom	ing
whatever	what	ever
whenever	when	ever
whichever	which	ever
white	white
whitewashing	white	wash	ing
wife	wife
wildly	wild	ly
win	win
wind	wind
wined	win	ed
wireless	wire	less
withholded	with	hold	ed
within	with	in
without	with	out
wizardry	wizard	ry
woman	woman
wonderfull	wonder	ful
woodenly	wood	en	ly
woodwork	wood	work
wordplay	word	play
workability	work	abil	ity
worshipping	wor	ship	ping
wounded	wound	ed
wrestling	wrestl	ing
xenotransplantations	xeno	trans	plantation	s
yanking	yank	ing
yearlings	year	ling	s
youngster	young	ster
zapping	zap 	ping
zeroing	zero	ing
ziggurats'	ziggurat	s	'
zigzagged	zig	zag	ged
zoology	zoo	logy
zoom	zoom
zooming	zoom	ing
